<?xml version="1.0" encoding="utf-8"?>
<!-- Generator: Adobe Illustrator 22.0.1, SVG Export Plug-In . SVG Version: 6.00 Build 0)  -->
<svg version="1.1" id="Camada_1" xmlns="http://www.w3.org/2000/svg" xmlns:xlink="http://www.w3.org/1999/xlink" x="0px" y="0px"
	 viewBox="0 0 52 46" style="enable-background:new 0 0 52 46;" xml:space="preserve">
<style type="text/css">
	.st0{fill:#FFFFFF;}
</style>
<g id="Group_3" transform="translate(-1509.4 -33.1)">
	<path id="Path_11" class="st0" d="M1522.9,58.6c-2.7,0.3-4.2,1.2-7.1,1.6c-2,0.3-4-0.4-5.4-1.9l-0.5,2.9c1.5,1.6,3.6,2.5,5.8,2.7
		c3.9,0,5.3-2.4,8.9-2.5c5.8-0.2,8.9,3.5,10.8,5.8C1535.4,67.2,1532,57.8,1522.9,58.6"/>
	<path id="Path_12" class="st0" d="M1535.4,64.1c-2.7-4.6-7.7-7.2-13-7c-2.4,0.2-4.8,1-6.7,0.8c-2.2-0.2-3.1-1-4.4-2.5l3.7-21.5
		c2,1.2,4.3,1.8,6.6,1.7c6.9-0.1,10.7,2.2,13.8,6.4c3.1-4.2,7-6.5,13.8-6.4c2.3,0,4.6-0.6,6.6-1.7l3.7,21.5
		c-1.4,1.5-2.2,2.3-4.4,2.5c-1.9,0.2-4.3-0.6-6.7-0.8C1543.1,56.9,1538.1,59.5,1535.4,64.1"/>
	<path id="Path_13" class="st0" d="M1547.9,58.6c2.7,0.3,4.2,1.2,7.1,1.6c2,0.3,4-0.4,5.4-1.9l0.5,2.9c-1.5,1.6-3.6,2.5-5.8,2.7
		c-3.9,0-5.3-2.4-8.9-2.5c-5.8-0.2-8.9,3.5-10.8,5.8C1535.4,67.2,1538.8,57.8,1547.9,58.6"/>
	<path id="Path_14" class="st0" d="M1514.9,69.2c1.1-0.1,2.3,0.3,3.1,1.1l-0.7,1l-0.2-0.2c-0.2-0.1-0.3-0.2-0.5-0.3
		c-0.5-0.3-1.1-0.4-1.7-0.4c-1.7,0-3,1.3-3,3c0,0.1,0,0.1,0,0.2c-0.1,1.7,1.2,3.2,2.9,3.3c0.1,0,0.1,0,0.2,0c0.7,0,1.4-0.2,2-0.6
		v-1.4c0-0.1-0.1-0.1-0.2-0.1h-0.6v-1.2h1.2c0.4-0.1,0.8,0.2,0.9,0.7c0,0.1,0,0.1,0,0.2v2.4l-0.2,0.2c-0.9,0.8-2,1.1-3.2,1.1
		c-2.4,0-4.3-2-4.3-4.4c0-0.1,0-0.1,0-0.2c-0.1-2.3,1.7-4.3,4.1-4.4C1514.7,69.2,1514.8,69.2,1514.9,69.2"/>
	<path id="Path_15" class="st0" d="M1522.3,71c-0.1,0.3-0.2,0.7-0.3,1l-0.9,2.5h2.4l-0.9-2.5C1522.5,71.7,1522.4,71.3,1522.3,71
		 M1521.6,69.4h1.4l3.2,8.8h-0.7c-0.5,0.1-1-0.3-1.1-0.8l-0.6-1.7h-3.1l-0.6,1.7c-0.1,0.5-0.5,0.9-1.1,0.8l0,0h-0.7L1521.6,69.4z"/>
	<path id="Path_16" class="st0" d="M1530.1,69.3c0.4-0.1,0.8,0.2,0.9,0.7c0,0.1,0,0.1,0,0.2v6.4c0,0.1,0.1,0.2,0.2,0.2h3.2v0.5
		c0,0.6-0.3,0.8-0.8,0.8h-3c-0.6,0-0.9-0.3-0.9-0.8v-7.9L1530.1,69.3"/>
	<path id="Path_17" class="st0" d="M1538.2,72.6l-1.2-3.2h0.7c0.5-0.1,1,0.3,1.1,0.8l1.9,5.3c0.1,0.3,0.2,0.6,0.3,0.9l0.3-0.9
		l1.9-5.3c0.1-0.5,0.5-0.9,1.1-0.8l0,0h0.7l-0.5,1.4l-2.7,7.4h-1.4L1538.2,72.6"/>
	<path id="Path_18" class="st0" d="M1548.3,73.6c0.8,0,1.5-0.7,1.5-1.5s-0.7-1.5-1.5-1.5h-1.5v2.9L1548.3,73.6 M1549.7,74.4l0.3,0.3
		l1.8,3.5h-0.8c-0.6,0-0.9-0.1-1.1-0.7l-1.2-2.3c-0.2-0.4-0.3-0.4-0.8-0.4h-1.1v3.4h-1.4v-8.7h3c1.4-0.1,2.5,1,2.6,2.3
		c0,0.1,0,0.2,0,0.3C1551.1,73.1,1550.6,74,1549.7,74.4L1549.7,74.4z"/>
	<path id="Path_19" class="st0" d="M1556.1,77c1.8,0.1,3.3-1.3,3.4-3.1s-1.3-3.3-3.1-3.4c-1.8-0.1-3.3,1.3-3.4,3.1v0.1
		C1552.9,75.4,1554.3,76.9,1556.1,77C1556,77,1556.1,77,1556.1,77 M1556.1,69.3c2.4,0,4.5,1.9,4.5,4.3c0,0.1,0,0.1,0,0.2
		c0,2.5-2,4.5-4.5,4.5s-4.5-2-4.5-4.5c-0.1-2.4,1.8-4.4,4.2-4.5C1555.9,69.3,1556,69.3,1556.1,69.3z"/>
	<path id="Path_20" class="st0" d="M1536.3,76.8v1.4h-0.5c-0.4,0.1-0.8-0.2-0.9-0.7c0-0.1,0-0.1,0-0.2v-7.9h0.5
		c0.6,0,0.8,0.3,0.8,0.8L1536.3,76.8"/>
	<path id="Path_21" class="st0" d="M1527.7,78.2c-0.4,0.1-0.8-0.2-0.9-0.7c0-0.1,0-0.1,0-0.2v-7.9h0.5c0.4-0.1,0.8,0.2,0.9,0.7
		c0,0.1,0,0.1,0,0.2v7.9H1527.7"/>
</g>
</svg>
